%YAML 1.1
%TAG !u! tag:unity3d.com,2011:
--- !u!21 &2100000
Material:
  serializedVersion: 8
  m_ObjectHideFlags: 0
  m_CorrespondingSourceObject: {fileID: 0}
  m_PrefabInstance: {fileID: 0}
  m_PrefabAsset: {fileID: 0}
  m_Name: "\u30C4-HS\u5149\u308B1"
  m_Shader: {fileID: 4800000, guid: d12428961551799408aa97256fd770c3, type: 3}
  m_ValidKeywords:
  - N_F_GLO_ON
  - N_F_O_ON
  - N_F_RELGI_ON
  - N_F_SS_ON
  m_InvalidKeywords: []
  m_LightmapFlags: 4
  m_EnableInstancingVariants: 0
  m_DoubleSidedGI: 0
  m_CustomRenderQueue: -1
  stringTagMap: {}
  disabledShaderPasses: []
  m_SavedProperties:
    serializedVersion: 3
    m_TexEnvs:
    - _BumpMap:
        m_Texture: {fileID: 0}
        m_Scale: {x: 1, y: 1}
        m_Offset: {x: 0, y: 0}
    - _DetailAlbedoMap:
        m_Texture: {fileID: 0}
        m_Scale: {x: 1, y: 1}
        m_Offset: {x: 0, y: 0}
    - _DetailMask:
        m_Texture: {fileID: 0}
        m_Scale: {x: 1, y: 1}
        m_Offset: {x: 0, y: 0}
    - _DetailNormalMap:
        m_Texture: {fileID: 0}
        m_Scale: {x: 1, y: 1}
        m_Offset: {x: 0, y: 0}
    - _EmissionMap:
        m_Texture: {fileID: 0}
        m_Scale: {x: 1, y: 1}
        m_Offset: {x: 0, y: 0}
    - _FReflection:
        m_Texture: {fileID: 0}
        m_Scale: {x: 1, y: 1}
        m_Offset: {x: 0, y: 0}
    - _GlossTexture:
        m_Texture: {fileID: 0}
        m_Scale: {x: 1, y: 1}
        m_Offset: {x: 0, y: 0}
    - _MCap:
        m_Texture: {fileID: 0}
        m_Scale: {x: 1, y: 1}
        m_Offset: {x: 0, y: 0}
    - _MCapMask:
        m_Texture: {fileID: 0}
        m_Scale: {x: 1, y: 1}
        m_Offset: {x: 0, y: 0}
    - _MainTex:
        m_Texture: {fileID: 0}
        m_Scale: {x: 1, y: 1}
        m_Offset: {x: 0, y: 0}
    - _MaskGloss:
        m_Texture: {fileID: 0}
        m_Scale: {x: 1, y: 1}
        m_Offset: {x: 0, y: 0}
    - _MaskReflection:
        m_Texture: {fileID: 0}
        m_Scale: {x: 1, y: 1}
        m_Offset: {x: 0, y: 0}
    - _MaskSelfLit:
        m_Texture: {fileID: 0}
        m_Scale: {x: 1, y: 1}
        m_Offset: {x: 0, y: 0}
    - _MetallicGlossMap:
        m_Texture: {fileID: 0}
        m_Scale: {x: 1, y: 1}
        m_Offset: {x: 0, y: 0}
    - _NormalMap:
        m_Texture: {fileID: 0}
        m_Scale: {x: 1, y: 1}
        m_Offset: {x: 0, y: 0}
    - _OcclusionMap:
        m_Texture: {fileID: 0}
        m_Scale: {x: 1, y: 1}
        m_Offset: {x: 0, y: 0}
    - _OutlineWidthControl:
        m_Texture: {fileID: 0}
        m_Scale: {x: 1, y: 1}
        m_Offset: {x: 0, y: 0}
    - _PTexture:
        m_Texture: {fileID: 0}
        m_Scale: {x: 1, y: 1}
        m_Offset: {x: 0, y: 0}
    - _ParallaxMap:
        m_Texture: {fileID: 0}
        m_Scale: {x: 1, y: 1}
        m_Offset: {x: 0, y: 0}
    - _SecondaryCutout:
        m_Texture: {fileID: 0}
        m_Scale: {x: 1, y: 1}
        m_Offset: {x: 0, y: 0}
    - _ShadowColorTexture:
        m_Texture: {fileID: 0}
        m_Scale: {x: 1, y: 1}
        m_Offset: {x: 0, y: 0}
    - _ShadowT:
        m_Texture: {fileID: 0}
        m_Scale: {x: 1, y: 1}
        m_Offset: {x: 0, y: 0}
    m_Ints: []
    m_Floats:
    - _AlphaBaseCutout: 1
    - _BumpScale: 1
    - _Compa: 4
    - _CustomLightDirectionFollowObjectRotation: 0
    - _CustomLightDirectionIntensity: 0
    - _Cutoff: 0.5
    - _Cutout: 0
    - _DetailNormalMapScale: 1
    - _DirectionalLightIntensity: 0
    - _DoubleSided: 2
    - _DoubleSidedOutline: 1
    - _DstBlend: 0
    - _DynamicNoisyOutline: 0
    - _EnableTextureTransparent: 0
    - _EnvironmentalLightingIntensity: 1
    - _FarDistanceMaxWidth: 10
    - _GIFlatShade: 0
    - _GIShadeThreshold: 0
    - _GlossColorPower: 10
    - _GlossIntensity: 0
    - _GlossMapScale: 1
    - _GlossSoftness: 0
    - _GlossTextureFollowLight: 0
    - _GlossTextureFollowObjectRotation: 0
    - _GlossTextureRotate: 0
    - _GlossTextureSoftness: 0
    - _Glossiness: 0.6
    - _GlossyReflections: 1
    - _HighlightColorPower: 1
    - _LightAffectOutlineColor: 0
    - _LightAffectRimLightColor: 0
    - _LightAffectShadow: 0
    - _LightFalloffAffectShadowT: 0
    - _LightFalloffSoftness: 1
    - _LightIntensity: -1
    - _MCIALO: 0
    - _MCapIntensity: 1
    - _MVCOL: 0
    - _Metallic: 0
    - _MixMainTexToOutline: 0
    - _Mode: 0
    - _N_F_CA: 0
    - _N_F_CLD: 0
    - _N_F_CO: 0
    - _N_F_FR: 0
    - _N_F_GLO: 1
    - _N_F_GLOT: 0
    - _N_F_HDLS: 0
    - _N_F_HPSS: 0
    - _N_F_MC: 0
    - _N_F_NLASOBF: 0
    - _N_F_NM: 0
    - _N_F_O: 1
    - _N_F_PT: 0
    - _N_F_R: 0
    - _N_F_RL: 0
    - _N_F_SCT: 0
    - _N_F_SL: 0
    - _N_F_SON: 0
    - _N_F_SS: 1
    - _N_F_ST: 0
    - _N_F_STIAL: 0
    - _N_F_STIS: 0
    - _NoisyOutlineIntensity: 0
    - _NormalMapIntensity: 1
    - _OcclusionStrength: 1
    - _Oper: 0
    - _OutlineExtrudeMethod: 0
    - _OutlineWidth: 0.014
    - _OutlineWidthAffectedByViewDistance: 0
    - _OutlineZPostionInCamera: 0
    - _OverallShadowColorPower: 1
    - _PSGLOTEX: 0
    - _PTexturePower: 1
    - _Parallax: 0.02
    - _PointLightSVD: 0
    - _PointSpotlightIntensity: 0.45
    - _RELG: 1
    - _ReduceShadowPointLight: 0
    - _ReduceShadowSpotDirectionalLight: 10
    - _RefMetallic: 0
    - _RefVal: 0
    - _ReflectionIntensity: 0
    - _ReflectionRoughtness: 0
    - _RimLightColorPower: 10
    - _RimLightInLight: 1
    - _RimLightSoftness: 1
    - _RimLightUnfill: 1.5
    - _SPECIN: 1
    - _SPECMODE: 0
    - _STIL: 0
    - _Saturation: 1
    - _SelfLitHighContrast: 1
    - _SelfLitIntensity: 0
    - _SelfLitPower: 2
    - _SelfShadowAffectedByLightShadowStrength: 0
    - _SelfShadowHardness: 1
    - _SelfShadowRealTimeShadowColorPower: 1
    - _SelfShadowRealtimeShadowIntensity: 1
    - _SelfShadowShadowTAtViewDirection: 0
    - _SelfShadowThreshold: 0.85
    - _ShadowColorTexturePower: 0
    - _ShadowHardness: 0
    - _ShadowTColorPower: 1
    - _ShadowTHardness: 1
    - _ShadowTIntensity: 1
    - _ShadowTLightThreshold: 50
    - _ShadowTShadowThreshold: 0
    - _ShowInAmbientLightShadowIntensity: 1
    - _ShowInAmbientLightShadowThreshold: 0.4
    - _ShowNormal: 0
    - _SmoothObjectNormal: 0
    - _SmoothnessTextureChannel: 0
    - _SpecularHighlights: 1
    - _SrcBlend: 1
    - _TEXMCOLINT: 1
    - _TexturePatternStyle: 0
    - _UVSec: 0
    - _UseSecondaryCutout: 0
    - _VertexColorBlueAffectOutlineWitdh: 0
    - _VertexColorGreenControlSelfShadowThreshold: 0
    - _VertexColorRedControlSmoothObjectNormal: 0
    - _XYZHardness: 14
    - _ZWrite: 1
    m_Colors:
    - _Color: {r: 0.9, g: 0.9, b: 0.9, a: 1}
    - _CustomLightDirection: {r: 0, g: 0, b: 10, a: 0}
    - _EmissionColor: {r: 0, g: 0, b: 0, a: 1}
    - _GlossColor: {r: 1, g: 1, b: 1, a: 1}
    - _HighlightColor: {r: 1, g: 1, b: 1, a: 1}
    - _MainColor: {r: 0.9, g: 0.9, b: 0.9, a: 1}
    - _OutlineColor: {r: 0, g: 0, b: 0, a: 1}
    - _OutlineOffset: {r: 0, g: 0, b: 0, a: 1}
    - _OverallShadowColor: {r: 0.2, g: 0.2, b: 0.2, a: 1}
    - _RimLightColor: {r: 1, g: 1, b: 1, a: 1}
    - _SelfLitColor: {r: 1, g: 1, b: 1, a: 1}
    - _SelfShadowRealTimeShadowColor: {r: 1, g: 1, b: 1, a: 1}
    - _ShadowTColor: {r: 1, g: 1, b: 1, a: 1}
    - _XYZPosition: {r: 0, g: 0, b: 0, a: 0}
  m_BuildTextureStacks: []
