%YAML 1.1
%TAG !u! tag:unity3d.com,2011:
--- !u!221 &22100000
AnimatorOverrideController:
  m_ObjectHideFlags: 0
  m_CorrespondingSourceObject: {fileID: 0}
  m_PrefabInstance: {fileID: 0}
  m_PrefabAsset: {fileID: 0}
  m_Name: CCC
  m_Controller: {fileID: 9100000, guid: a143c4bbb0553404798e0e58e49762e1, type: 2}
  m_Clips:
  - m_OriginalClip: {fileID: 7400000, guid: 16403cfdbefa14d40aeb53a145124590, type: 2}
    m_OverrideClip: {fileID: 7400000, guid: 16403cfdbefa14d40aeb53a145124590, type: 2}
