%YAML 1.1
%TAG !u! tag:unity3d.com,2011:
--- !u!114 &11400000
MonoBehaviour:
  m_ObjectHideFlags: 0
  m_CorrespondingSourceObject: {fileID: 0}
  m_PrefabInstance: {fileID: 0}
  m_PrefabAsset: {fileID: 0}
  m_GameObject: {fileID: 0}
  m_Enabled: 1
  m_EditorHideFlags: 0
  m_Script: {fileID: 11500000, guid: 1a811b887854ea44caf84f93beb89602, type: 3}
  m_Name: Song03
  m_EditorClassIdentifier: 
  songNum: 2
  songSprite: {fileID: 21300000, guid: e1163bd37c7f23a4a9fff0d0c6fe66ef, type: 3}
  songName: levan Polkka
