%YAML 1.1
%TAG !u! tag:unity3d.com,2011:
--- !u!78 &1
TagManager:
  serializedVersion: 2
  tags:
  - FocusObj
  - CubeRed
  - CubeBlue
  - SamplesInfoPanel
  - MikuChan
  layers:
  - Default
  - TransparentFX
  - Ignore Raycast
  - 
  - Water
  - UI
  - 
  - PostProcessing
  - UnityChan
  - 
  - 
  - 
  - Red
  - Blue
  - 
  - 
  - 
  - 
  - 
  - 
  - Stage
  - Particles
  - 
  - 
  - 
  - 
  - 
  - 
  - 
  - 
  - 
  - 
  m_SortingLayers:
  - name: Default
    uniqueID: 0
    locked: 0
